Stopwatch.sim/sim_1/behav/xsim/stopwatch.vcd
$date
   Fri Dec 26 13:14:04 2025
$end
$version
  2018.3
$end
$timescale
  1ps
$end
$scope module Stopwatch_tb $end
$var reg 2 ! btn_in [1:0] $end
$var reg 1 " clk $end
$var wire 8 # seg_R4 [7:0] $end
$var wire 8 $ seg_L2 [7:0] $end
$var wire 8 % an [7:0] $end
$var reg 24 & last_disp_time [23:0] $end
$var reg 32 ' sim_time_ms [31:0] $end
$scope module uut $end
$var wire 2 ( btn_in [1:0] $end
$var wire 1 ) clk $end
$var wire 8 # seg_R4 [7:0] $end
$var wire 8 $ seg_L2 [7:0] $end
$var wire 8 % an [7:0] $end
$var wire 24 * disp_time [23:0] $end
$var wire 2 + btn_out [1:0] $end
$var reg 8 , an_reg [7:0] $end
$scope module c_ctrl $end
$var wire 1 - start_stop $end
$var wire 1 ) clk $end
$var wire 1 . rst $end
$var wire 24 * disp_time [23:0] $end
$var reg 20 / divclk_cnt [19:0] $end
$var reg 1 0 divclk $end
$var reg 4 1 msec_l [3:0] $end
$var reg 4 2 msec_h [3:0] $end
$var reg 4 3 sec_l [3:0] $end
$var reg 4 4 sec_h [3:0] $end
$var reg 4 5 min_l [3:0] $end
$var reg 4 6 min_h [3:0] $end
$var reg 1 7 state $end
$upscope $end
$scope module key_d $end
$var wire 1 ) btn_clk $end
$var wire 1 8 rst $end
$var wire 2 ( btn_in [1:0] $end
$var wire 2 + btn_out [1:0] $end
$var reg 2 9 btn0 [1:0] $end
$var reg 2 : btn1 [1:0] $end
$var reg 2 ; btn2 [1:0] $end
$upscope $end
$scope module smg_R4 $end
$var wire 1 ) clk $end
$var wire 1 < rst $end
$var wire 16 = dispdata [15:0] $end
$var reg 8 > seg [7:0] $end
$var reg 4 ? an [3:0] $end
$var reg 17 @ divclk_cnt [16:0] $end
$var reg 1 A divclk $end
$var reg 4 B disp_dat [3:0] $end
$var reg 2 C disp_bit [1:0] $end
$var parameter 16 D maxcnt [15:0] $end
$upscope $end
$scope module smg_L2 $end
$var wire 1 ) clk $end
$var wire 1 E rst $end
$var wire 16 F dispdata [15:0] $end
$var reg 8 G seg [7:0] $end
$var reg 4 H an [3:0] $end
$var reg 17 I divclk_cnt [16:0] $end
$var reg 1 J divclk $end
$var reg 4 K disp_dat [3:0] $end
$var reg 2 L disp_bit [1:0] $end
$var parameter 16 M maxcnt [15:0] $end
$upscope $end
$upscope $end
$scope function seg_to_num $end
$var reg 4 N seg_to_num [3:0] $end
$var reg 8 O seg [7:0] $end
$upscope $end
$scope task display_current_time $end
$var reg 4 P current_digit [3:0] $end
$var integer 32 Q i $end
$var reg 16 R time_msec [15:0] $end
$var reg 8 S time_sec [7:0] $end
$var reg 8 T time_min [7:0] $end
$upscope $end
$scope task press_button $end
$var reg 2 U button [1:0] $end
$upscope $end
$scope task reset_system $end
$upscope $end
$upscope $end
$enddefinitions $end
#0
$dumpvars
b11 !
0"
bx #
bx $
b0xxxxxx %
bx &
b0 '
b11 (
0)
b0 *
b0 +
b111111 ,
0-
0.
b0 /
00
b0 1
b0 2
b0 3
b0 4
b0 5
b0 6
x7
08
b0 9
b0 :
b0 ;
0<
b0 =
bx >
b0 ?
b0 @
0A
bx B
b0 C
b1100001101010000 D
0E
b0 F
bx G
b0 H
b0 I
0J
bx K
b0 L
b1100001101010000 M
bx N
bx O
bx P
bx Q
bx R
bx S
bx T
bx U
$end
#5000
1"
b1 '
1)
07
#10000
0"
0)
#15000
1"
b10 '
1)
#20000
0"
0)
#25000
1"
b11 '
1)
#30000
0"
0)
#35000
1"
b100 '
1)
#40000
0"
0)
#45000
1"
b101 '
1)
#50000
0"
0)
#55000
1"
b110 '
1)
#60000
0"
0)
#65000
1"
b111 '
1)
#70000
0"
0)
#75000
1"
b1000 '
1)
#80000
0"
0)
#85000
1"
b1001 '
1)
#90000
0"
0)
#95000
1"
b1010 '
1)
#100000
b10 !
0"
b10 (
0)
1.
18
1<
1E
#105000
1"
b1011 '
1)
b0 +
0-
b1 /
b10 9
b1 @
b1 I
#110000
0"
0)
#115000
1"
b1100 '
1)
b0 +
0-
b10 /
b10 :
b10 @
b10 I
#120000
0"
0)
#125000
1"
b1101 '
1)
b10 +
1-
b11 /
b10 ;
b11 @
b11 I
#130000
0"
0)
#135000
1"
b1110 '
1)
b100 /
17
b100 @
b100 I
#140000
0"
0)
#145000
1"
b1111 '
1)
b101 /
07
b101 @
b101 I
#150000
0"
0)
#155000
1"
b10000 '
1)
b110 /
17
b110 @
b110 I
#160000
0"
0)
#165000
1"
b10001 '
1)
b111 /
07
b111 @
b111 I
#170000
0"
0)
#175000
1"
b10010 '
1)
b1000 /
17
b1000 @
b1000 I
#180000
0"
0)
#185000
1"
b10011 '
1)
b1001 /
07
b1001 @
b1001 I
#190000
0"
0)
#195000
1"
b10100 '
1)
b1010 /
17
b1010 @
b1010 I
#200000
0"
0)
#205000
1"
b10101 '
1)
b1011 /
07
b1011 @
b1011 I
#210000
0"
0)
#215000
1"
b10110 '
1)
b1100 /
17
b1100 @
b1100 I
#220000
0"
0)
#225000
1"
b10111 '
1)
b1101 /
07
b1101 @
b1101 I
#230000
0"
0)
#235000
1"
b11000 '
1)
b1110 /
17
b1110 @
b1110 I
#240000
0"
0)
#245000
1"
b11001 '
1)
b1111 /
07
b1111 @
b1111 I
#250000
0"
0)
#255000
1"
b11010 '
1)
b10000 /
17
b10000 @
b10000 I
#260000
0"
0)
#265000
1"
b11011 '
1)
b10001 /
07
b10001 @
b10001 I
#270000
0"
0)
#275000
1"
b11100 '
1)
b10010 /
17
b10010 @
b10010 I
#280000
0"
0)
#285000
1"
b11101 '
1)
b10011 /
07
b10011 @
b10011 I
#290000
0"
0)
#295000
1"
b11110 '
1)
b10100 /
17
b10100 @
b10100 I
#300000
0"
0)
#305000
1"
b11111 '
1)
b10101 /
07
b10101 @
b10101 I
#310000
0"
0)
#315000
1"
b100000 '
1)
b10110 /
17
b10110 @
b10110 I
#320000
0"
0)
#325000
1"
b100001 '
1)
b10111 /
07
b10111 @
b10111 I
#330000
0"
0)
#335000
1"
b100010 '
1)
b11000 /
17
b11000 @
b11000 I
#340000
0"
0)
#345000
1"
b100011 '
1)
b11001 /
07
b11001 @
b11001 I
#350000
0"
0)
#355000
1"
b100100 '
1)
b11010 /
17
b11010 @
b11010 I
#360000
0"
0)
#365000
1"
b100101 '
1)
b11011 /
07
b11011 @
b11011 I
#370000
0"
0)
#375000
1"
b100110 '
1)
b11100 /
17
b11100 @
b11100 I
#380000
0"
0)
#385000
1"
b100111 '
1)
b11101 /
07
b11101 @
b11101 I
#390000
0"
0)
#395000
1"
b101000 '
1)
b11110 /
17
b11110 @
b11110 I
#400000
0"
0)
#405000
1"
b101001 '
1)
b11111 /
07
b11111 @
b11111 I
#410000
0"
0)
#415000
1"
b101010 '
1)
b100000 /
17
b100000 @
b100000 I
#420000
0"
0)
#425000
1"
b101011 '
1)
b100001 /
07
b100001 @
b100001 I
#430000
0"
0)
#435000
1"
b101100 '
1)
b100010 /
17
b100010 @
b100010 I
#440000
0"
0)
#445000
1"
b101101 '
1)
b100011 /
07
b100011 @
b100011 I
#450000
0"
0)
#455000
1"
b101110 '
1)
b100100 /
17
b100100 @
b100100 I
#460000
0"
0)
#465000
1"
b101111 '
1)
b100101 /
07
b100101 @
b100101 I
#470000
0"
0)
#475000
1"
b110000 '
1)
b100110 /
17
b100110 @
b100110 I
#480000
0"
0)
#485000
1"
b110001 '
1)
b100111 /
07
b100111 @
b100111 I
#490000
0"
0)
#495000
1"
b110010 '
1)
b101000 /
17
b101000 @
b101000 I
#500000
0"
0)
#505000
1"
b110011 '
1)
b101001 /
07
b101001 @
b101001 I
#510000
0"
0)
#515000
1"
b110100 '
1)
b101010 /
17
b101010 @
b101010 I
#520000
0"
0)
#525000
1"
b110101 '
1)
b101011 /
07
b101011 @
b101011 I
#530000
0"
0)
#535000
1"
b110110 '
1)
b101100 /
17
b101100 @
b101100 I
#540000
0"
0)
#545000
1"
b110111 '
1)
b101101 /
07
b101101 @
b101101 I
#550000
0"
0)
#555000
1"
b111000 '
1)
b101110 /
17
b101110 @
b101110 I
#560000
0"
0)
#565000
1"
b111001 '
1)
b101111 /
07
b101111 @
b101111 I
#570000
0"
0)
#575000
1"
b111010 '
1)
b110000 /
17
b110000 @
b110000 I
#580000
0"
0)
#585000
1"
b111011 '
1)
b110001 /
07
b110001 @
b110001 I
#590000
0"
0)
#595000
1"
b111100 '
1)
b110010 /
17
b110010 @
b110010 I
#600000
0"
0)
#605000
1"
b111101 '
1)
b110011 /
07
b110011 @
b110011 I
#610000
0"
0)
#615000
1"
b111110 '
1)
b110100 /
17
b110100 @
b110100 I
#620000
0"
0)
#625000
1"
b111111 '
1)
b110101 /
07
b110101 @
b110101 I
#630000
0"
0)
#635000
1"
b1000000 '
1)
b110110 /
17
b110110 @
b110110 I
#640000
0"
0)
#645000
1"
b1000001 '
1)
b110111 /
07
b110111 @
b110111 I
#650000
0"
0)
#655000
1"
b1000010 '
1)
b111000 /
17
b111000 @
b111000 I
#660000
0"
0)
#665000
1"
b1000011 '
1)
b111001 /
07
b111001 @
b111001 I
#670000
0"
0)
#675000
1"
b1000100 '
1)
b111010 /
17
b111010 @
b111010 I
#680000
0"
0)
#685000
1"
b1000101 '
1)
b111011 /
07
b111011 @
b111011 I
#690000
0"
0)
#695000
1"
b1000110 '
1)
b111100 /
17
b111100 @
b111100 I
#700000
0"
0)
#705000
1"
b1000111 '
1)
b111101 /
07
b111101 @
b111101 I
#710000
0"
0)
#715000
1"
b1001000 '
1)
b111110 /
17
b111110 @
b111110 I
#720000
0"
0)
#725000
1"
b1001001 '
1)
b111111 /
07
b111111 @
b111111 I
#730000
0"
0)
#735000
1"
b1001010 '
1)
b1000000 /
17
b1000000 @
b1000000 I
#740000
0"
0)
#745000
1"
b1001011 '
1)
b1000001 /
07
b1000001 @
b1000001 I
#750000
0"
0)
#755000
1"
b1001100 '
1)
b1000010 /
17
b1000010 @
b1000010 I
#760000
0"
0)
#765000
1"
b1001101 '
1)
b1000011 /
07
b1000011 @
b1000011 I
#770000
0"
0)
#775000
1"
b1001110 '
1)
b1000100 /
17
b1000100 @
b1000100 I
#780000
0"
0)
#785000
1"
b1001111 '
1)
b1000101 /
07
b1000101 @
b1000101 I
#790000
0"
0)
#795000
1"
b1010000 '
1)
b1000110 /
17
b1000110 @
b1000110 I
#800000
0"
0)
#805000
1"
b1010001 '
1)
b1000111 /
07
b1000111 @
b1000111 I
#810000
0"
0)
#815000
1"
b1010010 '
1)
b1001000 /
17
b1001000 @
b1001000 I
#820000
0"
0)
#825000
1"
b1010011 '
1)
b1001001 /
07
b1001001 @
b1001001 I
#830000
0"
0)
#835000
1"
b1010100 '
1)
b1001010 /
17
b1001010 @
b1001010 I
#840000
0"
0)
#845000
1"
b1010101 '
1)
b1001011 /
07
b1001011 @
b1001011 I
#850000
0"
0)
#855000
1"
b1010110 '
1)
b1001100 /
17
b1001100 @
b1001100 I
#860000
0"
0)
#865000
1"
b1010111 '
1)
b1001101 /
07
b1001101 @
b1001101 I
#870000
0"
0)
#875000
1"
b1011000 '
1)
b1001110 /
17
b1001110 @
b1001110 I
#880000
0"
0)
#885000
1"
b1011001 '
1)
b1001111 /
07
b1001111 @
b1001111 I
#890000
0"
0)
#895000
1"
b1011010 '
1)
b1010000 /
17
b1010000 @
b1010000 I
#900000
0"
0)
#905000
1"
b1011011 '
1)
b1010001 /
07
b1010001 @
b1010001 I
#910000
0"
0)
#915000
1"
b1011100 '
1)
b1010010 /
17
b1010010 @
b1010010 I
#920000
0"
0)
#925000
1"
b1011101 '
1)
b1010011 /
07
b1010011 @
b1010011 I
#930000
0"
0)
#935000
1"
b1011110 '
1)
b1010100 /
17
b1010100 @
b1010100 I
#940000
0"
0)
#945000
1"
b1011111 '
1)
b1010101 /
07
b1010101 @
b1010101 I
#950000
0"
0)
#955000
1"
b1100000 '
1)
b1010110 /
17
b1010110 @
b1010110 I
#960000
0"
0)
#965000
1"
b1100001 '
1)
b1010111 /
07
b1010111 @
b1010111 I
#970000
0"
0)
#975000
1"
b1100010 '
1)
b1011000 /
17
b1011000 @
b1011000 I
#980000
0"
0)
#985000
1"
b1100011 '
1)
b1011001 /
07
b1011001 @
b1011001 I
#990000
0"
0)
#995000
1"
b1100100 '
1)
b1011010 /
17
b1011010 @
b1011010 I
